{
  "name": "web",
  "default_attributes": { },
  "override_attributes": { },
  "json_class": "Chef::Role",
  "description": "web server role",
  "chef_type": "role",
  "run_list": [
		"recipe[apt]",
		"recipe[apache2]",
		"recipe[apache2::mod_php5]", 
		"recipe[apache2::mod_rewrite]", 
		"recipe[mysql::client]",
		"recipe[mysql::server]",
		"recipe[mongodb::default]",
		"recipe[php]",
		"recipe[php::module_apc]",
		"recipe[php::module_curl]",
		"recipe[php::module_gd]",
		"recipe[php::module_memcache]",
		"recipe[php::module_mysql]",
		"recipe[memcached]",
		"recipe[app]"
	]
}